﻿Data;Último;Abertura;Máxima;Mínima;Var%
22/10/2021;4,2152;4,2252;4,2993;4,1991;-0,21%
21/10/2021;4,224;4,2069;4,2537;4,1856;0,42%
20/10/2021;4,2065;4,1739;4,2102;4,1518;0,84%
19/10/2021;4,1715;4,0859;4,1957;4,0831;2,14%
18/10/2021;4,0842;4,0535;4,1052;4,0296;0,74%
15/10/2021;4,054;4,0891;4,1029;4,0286;-0,83%
14/10/2021;4,088;4,0685;4,1009;4,0532;0,50%
13/10/2021;4,0677;4,0673;4,1139;4,0512;0,05%
12/10/2021;4,0658;4,0708;4,0892;4,0595;-0,10%
11/10/2021;4,07;4,028;4,0739;4,0156;1,09%
08/10/2021;4,0261;4,0358;4,0426;4,0055;-0,23%
07/10/2021;4,0353;3,9941;4,0404;3,9924;1,05%
06/10/2021;3,9932;3,9904;4,015;3,9574;0,04%
05/10/2021;3,9917;3,9736;4,0003;3,9503;0,53%
04/10/2021;3,9707;3,896;3,9796;3,8891;2,03%
01/10/2021;3,8916;3,9328;3,9526;3,8916;-1,05%
30/09/2021;3,933;3,8863;3,955;3,867;1,23%
29/09/2021;3,8854;3,9288;3,9446;3,8761;-1,10%
28/09/2021;3,9286;3,9292;3,9441;3,9044;0,03%
27/09/2021;3,9276;3,8751;3,9309;3,8503;1,41%
24/09/2021;3,8728;3,8697;3,8825;3,8433;0,11%
23/09/2021;3,8685;3,8332;3,8801;3,8201;0,96%
22/09/2021;3,8316;3,8117;3,8507;3,8066;0,55%
21/09/2021;3,8107;3,8616;3,8793;3,8074;-1,26%
20/09/2021;3,8593;3,8444;3,8917;3,8165;0,45%
17/09/2021;3,8419;3,8322;3,8993;3,8273;0,33%
16/09/2021;3,8293;3,8308;3,8505;3,8173;-0,01%
15/09/2021;3,8297;3,8354;3,8619;3,8238;-0,10%
14/09/2021;3,8336;3,8425;3,855;3,8191;-0,19%
13/09/2021;3,8409;3,8608;3,8723;3,8283;-0,45%
10/09/2021;3,8581;3,83;3,8813;3,8235;0,77%
09/09/2021;3,8286;3,9193;3,9337;3,8282;-2,30%
08/09/2021;3,9187;3,8191;3,9297;3,7996;2,67%
07/09/2021;3,8169;3,847;3,8623;3,8128;-0,74%
06/09/2021;3,8454;3,874;3,8779;3,8326;-0,67%
03/09/2021;3,8713;3,8359;3,8758;3,8242;0,97%
02/09/2021;3,8341;3,8206;3,8503;3,8077;0,42%
01/09/2021;3,8182;3,7683;3,8289;3,764;1,37%
31/08/2021;3,7666;3,7832;3,8069;3,7376;-0,39%
30/08/2021;3,7812;3,8017;3,8141;3,7804;-0,59%
27/08/2021;3,8036;3,8012;3,8178;3,7901;0,11%
26/08/2021;3,7994;3,7929;3,8134;3,7791;0,21%
25/08/2021;3,7915;3,8082;3,8229;3,7887;-0,41%
24/08/2021;3,8072;3,88;3,9012;3,807;-1,83%
23/08/2021;3,878;3,8326;3,8932;3,8243;1,09%
20/08/2021;3,836;3,8705;3,9037;3,8307;-0,85%
19/08/2021;3,869;3,8919;3,9105;3,8438;-0,53%
18/08/2021;3,8898;3,8396;3,9051;3,8151;1,32%
17/08/2021;3,8393;3,8595;3,863;3,7999;-0,51%
16/08/2021;3,8589;3,864;3,8818;3,8359;-0,19%
13/08/2021;3,8662;3,8528;3,89;3,8442;0,35%
12/08/2021;3,8527;3,8489;3,8608;3,8238;0,15%
11/08/2021;3,8471;3,8135;3,8586;3,8003;0,86%
10/08/2021;3,8143;3,8398;3,8618;3,8089;-0,60%
09/08/2021;3,8374;3,8499;3,8898;3,8254;-0,22%
06/08/2021;3,8457;3,8851;3,8909;3,8306;-1,04%
05/08/2021;3,8862;3,816;3,8924;3,7815;1,91%
04/08/2021;3,8135;3,8451;3,8689;3,8139;-0,75%
03/08/2021;3,8424;3,8114;3,8863;3,8077;0,89%
02/08/2021;3,8086;3,8273;3,8419;3,7666;-0,50%
30/07/2021;3,8279;3,7576;3,8386;3,7383;1,87%
29/07/2021;3,7575;3,7748;3,7936;3,7283;-0,46%
28/07/2021;3,7748;3,8057;3,8135;3,759;-0,78%
27/07/2021;3,8044;3,8233;3,8382;3,7931;-0,41%
26/07/2021;3,82;3,832;3,8479;3,8037;-0,28%
23/07/2021;3,8309;3,8396;3,8537;3,7978;-0,15%
22/07/2021;3,8368;3,8182;3,8495;3,8093;0,52%
21/07/2021;3,8169;3,8284;3,872;3,8057;-0,24%
20/07/2021;3,8261;3,8577;3,8684;3,8077;-0,77%
19/07/2021;3,8559;3,7862;3,8614;3,7562;1,85%
16/07/2021;3,7859;3,797;3,8052;3,7598;-0,25%
15/07/2021;3,7952;3,794;3,8124;3,762;0,06%
14/07/2021;3,7928;3,8449;3,8584;3,7894;-1,35%
13/07/2021;3,8448;3,8686;3,8849;3,8431;-0,57%
12/07/2021;3,8668;3,9353;3,943;3,8616;-1,75%
09/07/2021;3,9355;3,9074;3,9421;3,8969;0,77%
08/07/2021;3,9056;3,9155;3,9502;3,8812;-0,21%
07/07/2021;3,9137;3,8964;3,9527;3,8886;0,45%
06/07/2021;3,896;3,8379;3,9109;3,8326;1,64%
05/07/2021;3,833;3,8063;3,8417;3,7985;0,71%
02/07/2021;3,8058;3,7712;3,8113;3,735;0,93%
01/07/2021;3,7706;3,7262;3,7759;3,7123;1,21%
30/06/2021;3,7255;3,7235;3,7719;3,7156;0,08%
29/06/2021;3,7224;3,7281;3,7367;3,6958;-0,10%
28/06/2021;3,7263;3,7446;3,7596;3,7195;-0,44%
25/06/2021;3,7426;3,7269;3,7727;3,7222;0,45%
24/06/2021;3,726;3,7631;3,7697;3,7148;-0,96%
23/06/2021;3,7623;3,7462;3,7805;3,7375;0,48%
22/06/2021;3,7443;3,7775;3,7873;3,7441;-0,91%
21/06/2021;3,7785;3,8098;3,83;3,778;-0,70%
18/06/2021;3,8053;3,7819;3,8226;3,7364;0,68%
17/06/2021;3,7797;3,8479;3,8656;3,7801;-1,74%
16/06/2021;3,8465;3,8788;3,8963;3,8461;-0,76%
15/06/2021;3,8761;3,9035;3,9255;3,8708;-0,66%
14/06/2021;3,9018;3,9413;3,9513;3,8991;-1,05%
11/06/2021;3,9432;3,9209;3,9551;3,9074;0,62%
10/06/2021;3,9188;3,9146;3,9467;3,8937;0,16%
09/06/2021;3,9125;3,8988;3,9323;3,889;0,44%
08/06/2021;3,8952;3,9153;3,9214;3,8853;-0,42%
07/06/2021;3,9115;3,9069;3,9348;3,8959;0,12%
04/06/2021;3,9068;3,889;3,941;3,8849;0,48%
03/06/2021;3,8883;3,936;3,9367;3,8824;-1,17%
02/06/2021;3,9345;3,9955;4,0048;3,9279;-1,49%
01/06/2021;3,994;4,0363;4,0543;3,9855;-0,99%
31/05/2021;4,0339;4,0286;4,0731;4,0231;0,11%
28/05/2021;4,0296;4,0557;4,0604;4,0149;-0,61%
27/05/2021;4,0545;4,1115;4,1213;4,0525;-1,36%
26/05/2021;4,1106;4,1329;4,1576;4,0914;-0,50%
25/05/2021;4,1311;4,1244;4,1444;4,1023;0,18%
24/05/2021;4,1237;4,1469;4,1542;4,1131;-0,53%
21/05/2021;4,1457;4,1091;4,1518;4,0869;0,94%
20/05/2021;4,1071;4,1039;4,1227;4,095;0,14%
19/05/2021;4,1014;4,0998;4,1138;4,0688;0,07%
18/05/2021;4,0985;4,0925;4,1207;4,0712;0,12%
17/05/2021;4,0934;4,1025;4,1243;4,0761;-0,11%
14/05/2021;4,098;4,1038;4,1164;4,0774;-0,13%
13/05/2021;4,1033;4,0981;4,1118;4,0635;0,10%
12/05/2021;4,099;4,0948;4,1094;4,0442;0,16%
11/05/2021;4,0925;4,0935;4,137;4,0829;-0,01%
10/05/2021;4,0929;4,1076;4,1414;4,0889;-0,34%
07/05/2021;4,1067;4,1069;4,1143;4,0762;0,02%
06/05/2021;4,1058;4,1508;4,167;4,0785;-1,01%
05/05/2021;4,1479;4,1927;4,2165;4,1455;-1,10%
04/05/2021;4,1942;4,2224;4,2245;4,166;-0,69%
03/05/2021;4,2235;4,1959;4,2281;4,17;0,68%
30/04/2021;4,1949;4,1457;4,201;4,1373;1,18%
29/04/2021;4,146;4,1629;4,1925;4,141;-0,36%
28/04/2021;4,1611;4,2348;4,2383;4,1624;-1,69%
27/04/2021;4,2325;4,2406;4,2491;4,2039;-0,16%
26/04/2021;4,2392;4,2403;4,278;4,2347;-0,03%
23/04/2021;4,2405;4,1984;4,2713;4,1909;1,04%
22/04/2021;4,1969;4,3175;4,325;4,1906;-2,78%
21/04/2021;4,3171;4,3028;4,3233;4,2874;0,37%
20/04/2021;4,3013;4,3043;4,346;4,2622;-0,02%
19/04/2021;4,3023;4,3238;4,366;4,2864;-0,44%
16/04/2021;4,3214;4,3541;4,3961;4,3042;-0,72%
15/04/2021;4,3526;4,3691;4,3892;4,3369;-0,26%
14/04/2021;4,3638;4,3676;4,4088;4,3607;-0,07%
13/04/2021;4,3669;4,3706;4,3776;4,325;-0,07%
12/04/2021;4,3698;4,3304;4,3739;4,2929;0,91%
09/04/2021;4,3303;4,2654;4,3358;4,2249;1,56%
08/04/2021;4,2637;4,2748;4,2941;4,2387;-0,26%
07/04/2021;4,2747;4,2847;4,2986;4,2354;-0,20%
06/04/2021;4,2834;4,334;4,3399;4,2693;-1,12%
05/04/2021;4,3318;4,3404;4,3562;4,3028;-0,21%
02/04/2021;4,3411;4,3485;4,3607;4,3349;-0,14%
01/04/2021;4,3471;4,2796;4,3624;4,2427;1,62%
31/03/2021;4,2777;4,3877;4,4012;4,2691;-2,45%
30/03/2021;4,3852;4,4112;4,4322;4,3426;-0,56%
29/03/2021;4,4101;4,3966;4,4344;4,3811;0,34%
26/03/2021;4,3952;4,281;4,4023;4,2788;2,69%
25/03/2021;4,2802;4,262;4,313;4,2544;0,43%
24/03/2021;4,2618;4,2095;4,2821;4,1859;1,27%
23/03/2021;4,2084;4,2663;4,268;4,1823;-1,30%
22/03/2021;4,2638;4,2408;4,2949;4,2196;0,28%
19/03/2021;4,2517;4,3152;4,3222;4,2213;-1,41%
18/03/2021;4,3126;4,3544;4,3843;4,2727;-0,89%
17/03/2021;4,3515;4,357;4,3836;4,3342;-0,11%
16/03/2021;4,3563;4,3554;4,3639;4,3056;0,05%
15/03/2021;4,3543;4,3007;4,383;4,279;1,00%
12/03/2021;4,311;4,3124;4,3333;4,2768;0,01%
11/03/2021;4,3106;4,3878;4,4162;4,299;-1,73%
10/03/2021;4,3867;4,4777;4,4801;4,3664;-1,96%
09/03/2021;4,4743;4,4962;4,536;4,4426;-0,44%
08/03/2021;4,4942;4,3752;4,4959;4,3454;2,75%
05/03/2021;4,3739;4,3821;4,3833;4,3382;-0,13%
04/03/2021;4,3795;4,3692;4,3944;4,3276;0,24%
03/03/2021;4,369;4,4377;4,5093;4,3467;-1,56%
02/03/2021;4,4381;4,3857;4,4731;4,3645;1,25%
01/03/2021;4,3831;4,3181;4,3865;4,3089;1,61%
26/02/2021;4,3137;4,354;4,3609;4,2644;-0,92%
25/02/2021;4,3538;4,3081;4,3867;4,2992;1,08%
24/02/2021;4,3071;4,3045;4,3236;4,2715;0,08%
23/02/2021;4,3038;4,3272;4,3379;4,2807;-0,52%
22/02/2021;4,3263;4,2315;4,3691;4,2263;2,15%
19/02/2021;4,2353;4,2159;4,293;4,2097;0,48%
18/02/2021;4,2152;4,1941;4,2304;4,1853;0,54%
17/02/2021;4,1926;4,1666;4,2036;4,1481;0,67%
16/02/2021;4,1646;4,1779;4,1922;4,1586;-0,30%
15/02/2021;4,1772;4,1645;4,1833;4,1607;0,34%
12/02/2021;4,1632;4,1603;4,1796;4,1423;0,09%
11/02/2021;4,1596;4,1592;4,1944;4,1363;0,03%
10/02/2021;4,1585;4,1626;4,2023;4,136;-0,07%
09/02/2021;4,1616;4,134;4,2042;4,1313;0,73%
08/02/2021;4,1316;4,1118;4,1501;4,0852;0,21%
05/02/2021;4,1229;4,1251;4,151;4,0892;-0,02%
04/02/2021;4,1237;4,0785;4,1461;4,0735;1,13%
03/02/2021;4,0777;4,0838;4,1052;4,055;-0,13%
02/02/2021;4,0829;4,1402;4,163;4,0529;-1,35%
01/02/2021;4,1388;4,1765;4,1869;4,1373;-0,85%
29/01/2021;4,1744;4,1783;4,2278;4,1542;-0,09%
28/01/2021;4,1781;4,1488;4,1881;4,1101;0,74%
27/01/2021;4,1475;4,1469;4,1661;4,1172;0,02%
26/01/2021;4,1465;4,2169;4,2264;4,117;-1,59%
25/01/2021;4,2136;4,2221;4,2363;4,2;-0,10%
22/01/2021;4,218;4,1551;4,2347;4,1233;1,55%
21/01/2021;4,1537;4,0992;4,189;4,0672;1,33%
20/01/2021;4,099;4,123;4,1485;4,0898;-0,58%
19/01/2021;4,1228;4,068;4,1318;4,0434;1,38%
18/01/2021;4,0666;4,0791;4,0887;4,0233;-0,24%
15/01/2021;4,0764;4,0423;4,095;4,0166;0,86%
14/01/2021;4,0415;4,0979;4,1188;4,0413;-1,36%
13/01/2021;4,0972;4,137;4,1445;4,0756;-0,93%
12/01/2021;4,1357;4,2254;4,2495;4,1261;-2,14%
11/01/2021;4,226;4,2023;4,2458;4,1679;0,53%
08/01/2021;4,2037;4,2;4,2151;4,1456;0,03%
07/01/2021;4,2026;4,1463;4,2116;4,1066;1,38%
06/01/2021;4,1454;4,1017;4,1632;4,0849;1,11%
05/01/2021;4,0999;4,0609;4,1258;4,0579;1,01%
04/01/2021;4,0589;4,0006;4,0622;3,9499;1,44%
01/01/2021;4,0011;3,9968;4,0023;3,995;0,13%
31/12/2020;3,9959;3,9921;4,0219;3,9879;0,13%
30/12/2020;3,9908;3,9629;4,0195;3,9515;0,72%
29/12/2020;3,9621;3,9762;3,9922;3,9362;-0,34%
28/12/2020;3,9755;3,9562;4,0204;3,9162;0,29%
25/12/2020;3,964;3,9632;3,972;3,9516;0,13%
24/12/2020;3,9588;3,9513;3,9687;3,9473;0,23%
23/12/2020;3,9499;3,8819;3,9564;3,8784;1,79%
22/12/2020;3,8806;3,8851;3,8965;3,8568;-0,12%
21/12/2020;3,8852;3,8767;3,9268;3,8073;-0,12%
18/12/2020;3,8899;3,8556;3,8974;3,8353;0,91%
17/12/2020;3,8549;3,8523;3,8846;3,8398;0,09%
16/12/2020;3,8515;3,8435;3,8895;3,8328;0,24%
15/12/2020;3,8421;3,8573;3,8639;3,8246;-0,41%
14/12/2020;3,8581;3,8193;3,869;3,7922;1,11%
11/12/2020;3,8159;3,7868;3,8361;3,7792;0,80%
10/12/2020;3,7858;3,8519;3,8767;3,7791;-1,66%
09/12/2020;3,8497;3,7954;3,8597;3,791;1,45%
08/12/2020;3,7946;3,7843;3,8068;3,7496;0,29%
07/12/2020;3,7835;3,8335;3,8366;3,7667;-1,11%
04/12/2020;3,826;3,8326;3,8543;3,8033;-0,14%
03/12/2020;3,8312;3,8679;3,8828;3,8099;-0,97%
02/12/2020;3,8688;3,8377;3,886;3,8338;0,84%
01/12/2020;3,8364;3,9166;3,9323;3,8348;-2,04%
30/11/2020;3,9163;3,9506;3,9783;3,8917;-0,78%
27/11/2020;3,9469;3,9289;3,969;3,923;0,46%
26/11/2020;3,9287;3,9207;3,945;3,9;0,23%
25/11/2020;3,9198;3,9558;3,9631;3,9002;-0,89%
24/11/2020;3,955;3,963;4,0092;3,9412;-0,18%
23/11/2020;3,9623;3,9306;3,9695;3,9097;0,87%
20/11/2020;3,9283;3,8668;3,9442;3,8549;1,61%
19/11/2020;3,866;3,9182;3,9193;3,85;-1,32%
18/11/2020;3,9176;3,89;3,9244;3,8561;0,75%
17/11/2020;3,8884;3,9636;3,976;3,8856;-1,88%
16/11/2020;3,9628;3,9637;3,9899;3,9172;-0,11%
13/11/2020;3,967;3,9475;4,0076;3,9412;0,51%
12/11/2020;3,9468;3,9258;3,9685;3,8856;0,59%
11/11/2020;3,9236;3,9443;3,9657;3,9043;-0,52%
10/11/2020;3,9441;3,9244;3,9464;3,8783;0,57%
09/11/2020;3,9219;3,8926;3,9463;3,8245;0,77%
06/11/2020;3,8921;4,0238;4,0458;3,8891;-3,25%
05/11/2020;4,0228;4,0684;4,09;4,0142;-0,97%
04/11/2020;4,0624;4,1242;4,1576;4,0547;-1,43%
03/11/2020;4,1213;4,0511;4,1271;4,0331;1,74%
02/11/2020;4,0508;4,0392;4,0537;4,0149;0,36%
30/10/2020;4,0362;4,0634;4,0872;4,023;-0,62%
29/10/2020;4,0615;4,049;4,073;4,0358;0,35%
28/10/2020;4,0473;4,0663;4,0848;4,0217;-0,48%
27/10/2020;4,0669;4,0065;4,0723;3,9956;1,55%
26/10/2020;4,005;4,0061;4,0354;3,9911;-0,08%
23/10/2020;4,0081;3,9797;4,0207;3,9718;0,74%
22/10/2020;3,9787;3,9917;3,9962;3,9578;-0,28%
21/10/2020;3,9897;3,9509;4,0091;3,9492;1,00%
20/10/2020;3,9501;3,9653;3,9662;3,9163;-0,31%
19/10/2020;3,9624;3,9979;4,0188;3,9451;-0,86%
16/10/2020;3,9967;3,9828;4,0033;3,9652;0,41%
15/10/2020;3,9805;4,0051;4,011;3,9518;-0,60%
14/10/2020;4,0044;3,9881;4,0171;3,9783;0,42%
13/10/2020;3,9876;3,9878;4,028;3,9632;0,03%
12/10/2020;3,9866;3,9964;4,0036;3,9841;-0,45%
09/10/2020;4,0048;4,0136;4,0293;3,9848;-0,17%
08/10/2020;4,0115;4,0069;4,0401;3,9937;0,18%
07/10/2020;4,0042;3,9752;4,0273;3,9597;0,78%
06/10/2020;3,9732;4,004;4,0192;3,9258;-0,71%
05/10/2020;4,0018;4,0635;4,088;3,9821;-1,73%
02/10/2020;4,0722;4,0553;4,0775;4,0163;0,45%
01/10/2020;4,0539;4,0193;4,0733;4,0139;0,88%
30/09/2020;4,0187;4,0167;4,0527;3,9985;0,08%
29/09/2020;4,0156;4,0043;4,0375;3,9948;0,34%
28/09/2020;4,0018;3,9095;4,01;3,8972;2,38%
25/09/2020;3,9087;3,8823;3,9249;3,8705;0,71%
24/09/2020;3,881;3,9575;3,9618;3,873;-1,93%
23/09/2020;3,9574;3,9235;3,9612;3,8914;0,92%
22/09/2020;3,9214;3,9125;3,9369;3,8864;0,29%
21/09/2020;3,9099;3,9383;3,9821;3,8854;-0,43%
18/09/2020;3,9266;3,8319;3,9375;3,8199;2,50%
17/09/2020;3,831;3,8284;3,864;3,7993;0,13%
16/09/2020;3,8261;3,8528;3,8746;3,8121;-0,65%
15/09/2020;3,8511;3,8414;3,8816;3,8255;0,28%
14/09/2020;3,8402;3,8731;3,8819;3,8354;-0,87%
11/09/2020;3,8738;3,8616;3,8886;3,8334;0,33%
10/09/2020;3,8609;3,8655;3,876;3,8479;-0,11%
09/09/2020;3,8651;3,8684;3,8837;3,8387;-0,05%
08/09/2020;3,867;3,8564;3,9107;3,8373;0,31%
07/09/2020;3,8549;3,8593;3,8686;3,8526;-0,10%
04/09/2020;3,8589;3,8491;3,8819;3,8126;0,29%
03/09/2020;3,8479;3,9201;3,9209;3,8363;-1,80%
02/09/2020;3,9186;3,9783;3,9859;3,9135;-1,48%
01/09/2020;3,9774;4,0521;4,0724;3,9341;-1,79%
31/08/2020;4,0499;3,9646;4,0638;3,9551;2,04%
28/08/2020;3,9689;4,0461;4,0939;3,9651;-1,81%
27/08/2020;4,0421;4,0554;4,0738;4,0261;-0,31%
26/08/2020;4,0548;3,9635;4,0777;3,959;2,32%
25/08/2020;3,9629;4,0195;4,0325;3,9609;-1,35%
24/08/2020;4,0173;4,0208;4,0461;3,9981;-0,16%
21/08/2020;4,0239;3,9981;4,0314;3,9778;0,70%
20/08/2020;3,9959;3,9911;4,056;3,9704;0,13%
19/08/2020;3,9908;3,9602;3,9992;3,9469;0,81%
18/08/2020;3,9589;3,9753;3,9934;3,9316;-0,38%
17/08/2020;3,9742;3,8838;3,9797;3,8816;2,24%
14/08/2020;3,887;3,8394;3,9023;3,8284;1,28%
13/08/2020;3,8378;3,8926;3,9081;3,8241;-1,42%
12/08/2020;3,893;3,8431;3,9373;3,8258;1,32%
11/08/2020;3,8424;3,9188;3,942;3,8431;-1,94%
10/08/2020;3,9185;3,8946;3,9263;3,8341;0,68%
07/08/2020;3,8922;3,8572;3,9049;3,8361;0,93%
06/08/2020;3,8563;3,8056;3,8783;3,7959;1,37%
05/08/2020;3,8042;3,7889;3,83;3,7807;0,43%
04/08/2020;3,788;3,7911;3,8312;3,7758;-0,06%
03/08/2020;3,7904;3,7315;3,7984;3,7043;1,59%
31/07/2020;3,731;3,7078;3,7515;3,6992;0,65%
30/07/2020;3,7068;3,7143;3,7275;3,6841;-0,21%
29/07/2020;3,7146;3,689;3,7253;3,6706;0,72%
28/07/2020;3,6882;3,6818;3,7212;3,6593;0,28%
27/07/2020;3,6779;3,7129;3,7401;3,672;-1,05%
24/07/2020;3,7169;3,6995;3,7197;3,6639;0,50%
23/07/2020;3,6984;3,6553;3,7094;3,6418;1,26%
22/07/2020;3,6522;3,6862;3,7339;3,6307;-0,86%
21/07/2020;3,684;3,7374;3,7775;3,6827;-1,41%
20/07/2020;3,7367;3,7646;3,7744;3,7345;-0,80%
17/07/2020;3,7667;3,717;3,7766;3,712;1,39%
16/07/2020;3,7152;3,7633;3,7678;3,6999;-1,26%
15/07/2020;3,7626;3,7429;3,7769;3,716;0,52%
14/07/2020;3,7432;3,7506;3,7998;3,7143;-0,19%
13/07/2020;3,7504;3,7016;3,7545;3,6946;1,39%
10/07/2020;3,699;3,7209;3,7471;3,6909;-0,54%
09/07/2020;3,7191;3,7315;3,7441;3,6649;-0,29%
08/07/2020;3,7299;3,737;3,7497;3,6952;-0,17%
07/07/2020;3,7363;3,7368;3,7504;3,6867;0,01%
06/07/2020;3,7359;3,6859;3,7382;3,6691;1,31%
03/07/2020;3,6876;3,7106;3,7318;3,682;-0,60%
02/07/2020;3,7099;3,6779;3,7234;3,6509;0,92%
01/07/2020;3,6759;3,7731;3,7815;3,6647;-2,57%
30/06/2020;3,7727;3,7097;3,7898;3,6918;1,72%
29/06/2020;3,7089;3,7655;3,7808;3,7007;-1,41%
26/06/2020;3,762;3,689;3,7671;3,6783;2,01%
25/06/2020;3,6877;3,6755;3,6983;3,6231;0,42%
24/06/2020;3,6721;3,5746;3,6788;3,5529;2,82%
23/06/2020;3,5713;3,6279;3,6511;3,5609;-1,53%
22/06/2020;3,6268;3,6343;3,6625;3,5854;-0,04%
19/06/2020;3,6281;3,6862;3,7099;3,6225;-1,54%
18/06/2020;3,6848;3,5985;3,69;3,5752;2,39%
17/06/2020;3,5988;3,6146;3,635;3,5747;-0,41%
16/06/2020;3,6136;3,5674;3,6209;3,5006;1,31%
15/06/2020;3,5667;3,4555;3,5803;3,423;2,91%
12/06/2020;3,4659;3,4123;3,5178;3,3833;1,62%
11/06/2020;3,4106;3,4811;3,4845;3,4035;-1,99%
10/06/2020;3,48;3,4111;3,4834;3,3928;2,06%
09/06/2020;3,4097;3,3858;3,4313;3,3266;0,72%
08/06/2020;3,3853;3,4566;3,4769;3,3819;-2,02%
05/06/2020;3,4551;3,5543;3,5902;3,4455;-2,77%
04/06/2020;3,5536;3,5043;3,5726;3,478;1,45%
03/06/2020;3,5029;3,5871;3,6323;3,4794;-2,31%
02/06/2020;3,5858;3,6469;3,6874;3,584;-1,63%
01/06/2020;3,6454;3,5524;3,6785;3,5462;2,49%
29/05/2020;3,557;3,5879;3,6253;3,5478;-0,82%
28/05/2020;3,5864;3,4921;3,5915;3,4745;2,74%
27/05/2020;3,4909;3,5567;3,5714;3,476;-1,80%
26/05/2020;3,555;3,5643;3,6129;3,5503;-0,25%
25/05/2020;3,5639;3,6079;3,6256;3,5545;-1,42%
22/05/2020;3,6152;3,6451;3,6663;3,6108;-0,78%
21/05/2020;3,6435;3,7562;3,7579;3,6418;-2,98%
20/05/2020;3,7553;3,7631;3,7897;3,7369;-0,15%
19/05/2020;3,7608;3,7312;3,7831;3,7155;0,86%
18/05/2020;3,7289;3,7612;3,7917;3,7067;-0,71%
15/05/2020;3,7557;3,755;3,7784;3,7096;0,02%
14/05/2020;3,7548;3,7982;3,8386;3,7483;-1,15%
13/05/2020;3,7983;3,8103;3,8411;3,7905;-0,24%
12/05/2020;3,8074;3,7766;3,8231;3,7404;0,87%
11/05/2020;3,7747;3,743;3,7901;3,7063;0,86%
08/05/2020;3,7424;3,7882;3,9074;3,7338;-1,12%
07/05/2020;3,7847;3,6586;3,8017;3,6449;3,49%
06/05/2020;3,657;3,5883;3,6658;3,5794;1,96%
05/05/2020;3,5868;3,5654;3,6119;3,531;0,66%
04/05/2020;3,5632;3,5224;3,6038;3,4955;1,22%
01/05/2020;3,5201;3,5729;3,574;3,5161;-1,43%
30/04/2020;3,5713;3,4992;3,574;3,4836;2,12%
29/04/2020;3,497;3,5713;3,607;3,4958;-2,03%
28/04/2020;3,5694;3,6555;3,6841;3,5597;-2,31%
27/04/2020;3,6538;3,5713;3,7011;3,5663;2,36%
24/04/2020;3,5697;3,5264;3,6661;3,5063;1,29%
23/04/2020;3,5243;3,4515;3,5389;3,4292;2,12%
22/04/2020;3,4511;3,3389;3,4546;3,3368;3,37%
21/04/2020;3,3386;3,3691;3,3751;3,3244;-0,88%
20/04/2020;3,3682;3,3293;3,386;3,3178;1,12%
17/04/2020;3,3308;3,311;3,3563;3,3045;0,58%
16/04/2020;3,3116;3,3101;3,3259;3,2813;0,09%
15/04/2020;3,3085;3,3264;3,3335;3,2575;-0,48%
14/04/2020;3,3244;3,3191;3,3467;3,2957;0,23%
13/04/2020;3,3167;3,2408;3,3251;3,2303;2,35%
10/04/2020;3,2405;3,2385;3,2531;3,2239;0,13%
09/04/2020;3,2363;3,1916;3,2404;3,1741;1,39%
08/04/2020;3,1918;3,2218;3,2536;3,185;-0,89%
07/04/2020;3,2206;3,215;3,2748;3,2074;0,11%
06/04/2020;3,2172;3,2157;3,2557;3,1799;0,30%
03/04/2020;3,2077;3,1837;3,212;3,1432;0,71%
02/04/2020;3,1852;3,1869;3,2129;3,1623;-0,03%
01/04/2020;3,186;3,1925;3,2336;3,1498;-0,22%
31/03/2020;3,193;3,2069;3,228;3,1525;-0,32%
30/03/2020;3,2034;3,1358;3,2081;3,1177;1,89%
27/03/2020;3,144;3,0473;3,1602;3,0315;3,23%
26/03/2020;3,0456;3,0013;3,0513;2,9553;1,53%
25/03/2020;2,9997;3,0375;3,0974;2,9671;-1,23%
24/03/2020;3,0371;2,9975;3,0735;2,9692;1,32%
23/03/2020;2,9976;2,9366;3,0001;2,8867;2,12%
20/03/2020;2,9354;2,9264;3,0512;2,8861;0,34%
19/03/2020;2,9254;2,948;3,0645;2,8127;-0,73%
18/03/2020;2,9469;3,0055;3,0744;2,9383;-1,90%
17/03/2020;3,004;3,0585;3,0753;2,9749;-1,79%
16/03/2020;3,0586;2,9815;3,1011;2,9619;1,84%
13/03/2020;3,0032;2,988;3,0319;2,9168;0,52%
12/03/2020;2,9877;3,1226;3,2092;2,9676;-4,27%
11/03/2020;3,1211;3,0222;3,1313;3,0087;3,35%
10/03/2020;3,0199;3,1133;3,1249;3,0008;-2,92%
09/03/2020;3,1106;3,0639;3,1709;2,9246;1,08%
06/03/2020;3,0774;3,0475;3,1032;3,0336;0,99%
05/03/2020;3,0473;3,0385;3,0786;3,0291;0,31%
04/03/2020;3,0378;2,972;3,0392;2,9689;2,23%
03/03/2020;2,9714;2,9262;2,9808;2,9118;1,57%
02/03/2020;2,9255;2,9022;2,9496;2,8886;0,47%
28/02/2020;2,9117;2,9471;2,955;2,9018;-1,18%
27/02/2020;2,9465;2,9124;2,9611;2,9115;1,19%
26/02/2020;2,9118;2,8978;2,9197;2,8758;0,47%
25/02/2020;2,8981;2,8983;2,9066;2,8897;0,01%
24/02/2020;2,8977;2,9105;2,9105;2,8884;-0,39%
21/02/2020;2,9089;2,9068;2,9145;2,8933;0,09%
20/02/2020;2,9062;2,9134;2,9236;2,8865;-0,25%
19/02/2020;2,9136;2,9128;2,928;2,9093;0,08%
18/02/2020;2,9113;2,9053;2,9188;2,8879;0,23%
17/02/2020;2,9047;2,8849;2,9107;2,8843;0,69%
14/02/2020;2,8848;2,9225;2,9292;2,8796;-1,28%
13/02/2020;2,9222;2,9346;2,9503;2,9021;-0,40%
12/02/2020;2,9338;2,9083;2,9353;2,9072;0,89%
11/02/2020;2,9078;2,8921;2,913;2,8826;0,56%
10/02/2020;2,8916;2,8861;2,8985;2,8763;0,32%
07/02/2020;2,8825;2,8821;2,8874;2,8568;0,02%
06/02/2020;2,8819;2,8578;2,8854;2,8421;0,88%
05/02/2020;2,8567;2,8668;2,8831;2,855;-0,35%
04/02/2020;2,8667;2,8428;2,8712;2,8368;0,87%
03/02/2020;2,8421;2,8654;2,873;2,8319;-0,80%
31/01/2020;2,8651;2,8523;2,8722;2,8357;0,50%
30/01/2020;2,8509;2,8573;2,8654;2,8428;-0,20%
29/01/2020;2,8567;2,8363;2,8579;2,8219;0,72%
28/01/2020;2,8362;2,8446;2,8473;2,827;-0,28%
27/01/2020;2,8442;2,8504;2,8605;2,8288;-0,38%
24/01/2020;2,8551;2,8556;2,8656;2,8477;0,00%
23/01/2020;2,855;2,863;2,8789;2,8451;-0,27%
22/01/2020;2,8626;2,8835;2,8854;2,8547;-0,70%
21/01/2020;2,8829;2,8802;2,8896;2,8676;0,13%
20/01/2020;2,8792;2,8641;2,8826;2,8577;0,67%
17/01/2020;2,8599;2,8869;2,8929;2,8593;-0,92%
16/01/2020;2,8866;2,8826;2,8956;2,8791;0,17%
15/01/2020;2,8818;2,8523;2,8929;2,8439;1,06%
14/01/2020;2,8515;2,8626;2,8717;2,8456;-0,38%
13/01/2020;2,8624;2,8252;2,8649;2,8193;1,27%
10/01/2020;2,8266;2,8068;2,8352;2,796;0,71%
09/01/2020;2,8066;2,791;2,8074;2,7831;0,59%
08/01/2020;2,79;2,7934;2,8012;2,7764;-0,13%
07/01/2020;2,7936;2,8189;2,8205;2,7856;-0,88%
06/01/2020;2,8183;2,8267;2,8303;2,8058;-0,23%
03/01/2020;2,8249;2,8159;2,8287;2,789;0,35%
02/01/2020;2,815;2,8207;2,8249;2,7966;-0,18%
01/01/2020;2,8201;2,8224;2,8261;2,8173;-0,06%
31/12/2019;2,8217;2,8117;2,827;2,8107;0,38%
30/12/2019;2,811;2,8222;2,8341;2,804;-0,41%
27/12/2019;2,8226;2,8171;2,8345;2,8115;0,21%
26/12/2019;2,8167;2,8277;2,8308;2,8019;-0,30%
25/12/2019;2,8252;2,8259;2,8286;2,8233;-0,01%
24/12/2019;2,8256;2,8266;2,8307;2,8221;-0,02%
23/12/2019;2,8261;2,8289;2,8428;2,8061;-0,13%
20/12/2019;2,8297;2,8026;2,8317;2,7994;1,01%
19/12/2019;2,8014;2,7847;2,8031;2,7812;0,63%
18/12/2019;2,784;2,7896;2,794;2,773;-0,18%
17/12/2019;2,789;2,7975;2,798;2,7753;-0,28%
16/12/2019;2,7968;2,8308;2,832;2,7933;-0,97%
13/12/2019;2,8243;2,8259;2,8414;2,8133;-0,05%
12/12/2019;2,8257;2,8354;2,8469;2,8141;-0,32%
11/12/2019;2,8347;2,8237;2,8423;2,8088;0,40%
10/12/2019;2,8235;2,8264;2,833;2,8145;-0,08%
09/12/2019;2,8258;2,8299;2,8415;2,8168;-0,21%
06/12/2019;2,8317;2,8602;2,8728;2,8273;-0,99%
05/12/2019;2,86;2,882;2,885;2,8548;-0,76%
04/12/2019;2,8819;2,8802;2,8851;2,8613;0,08%
03/12/2019;2,8796;2,8797;2,8989;2,8619;0,03%
02/12/2019;2,8788;2,8642;2,8869;2,8619;0,46%
29/11/2019;2,8655;2,8372;2,8723;2,8331;1,05%
28/11/2019;2,8358;2,8892;2,8909;2,8351;-1,83%
27/11/2019;2,8886;2,8737;2,8972;2,8661;0,55%
26/11/2019;2,8729;2,8654;2,9037;2,8608;0,30%
25/11/2019;2,8644;2,8505;2,8678;2,8414;0,59%
22/11/2019;2,8475;2,8456;2,8533;2,8328;0,11%
21/11/2019;2,8445;2,8549;2,8711;2,8412;-0,33%
20/11/2019;2,8538;2,8631;2,8651;2,849;-0,30%
19/11/2019;2,8625;2,8737;2,8806;2,858;-0,31%
18/11/2019;2,8714;2,8584;2,8737;2,8398;0,36%
15/11/2019;2,861;2,8472;2,8639;2,8443;0,50%
14/11/2019;2,8467;2,8517;2,8534;2,8252;-0,16%
13/11/2019;2,8512;2,8512;2,8635;2,8416;0,02%
12/11/2019;2,8506;2,844;2,866;2,8332;0,24%
11/11/2019;2,8438;2,8591;2,8609;2,8335;-0,41%
08/11/2019;2,8556;2,8286;2,8604;2,8133;0,98%
07/11/2019;2,828;2,8108;2,8313;2,7879;0,63%
06/11/2019;2,8102;2,7533;2,8175;2,7415;2,09%
05/11/2019;2,7527;2,7644;2,781;2,7455;-0,40%
04/11/2019;2,7637;2,7562;2,7671;2,7479;0,20%
01/11/2019;2,7581;2,7703;2,7771;2,7421;-0,40%
31/10/2019;2,7692;2,7561;2,781;2,7345;0,57%
30/10/2019;2,7536;2,7445;2,7662;2,7379;0,34%
29/10/2019;2,7442;2,7293;2,7494;2,7269;0,58%
28/10/2019;2,7285;2,7324;2,7387;2,7115;-0,08%
25/10/2019;2,7308;2,7561;2,7617;2,7275;-0,85%
24/10/2019;2,7541;2,7668;2,7671;2,7313;-0,37%
